Loan Defaulting Investigation
…
 Slightly 

Generally, from the above faceted graph, we can observe that the number of clients who didn’t defaulted their loan is greater than that of clients who did default despite their marital status. Furthermore, the number of single clients is greater than that of married clients for both defaulted and non-defaulted loans.

Paying greater attention, we can see that married people are more likely to default on a loan. The relative height difference of the bars for married clients who didn’t repay their loan compared to those who did is smaller than the equivalent difference for single clients. In other words, the proportion of married clients who defaulted on a loan was greater than the equivalent proportion for single clients.

As a result, it can be concluded that the marital status of a client (with a higher than the median income of all clients) does affect the probability that he/she will be able to repay a loan or not.

 How Accurate is the Model in Predicting future Loan Defaulting 

 Based on High Income and Marital Status 

## # A tibble: 2,801 × 5
##    .pred_No .pred_Yes risk_flag  Income Married.Single
##       <dbl>     <dbl> <fct>       <int> <chr>         
##  1    0.865     0.135 No        9999180 single        
##  2    0.865     0.135 Yes       9985581 single        
##  3    0.865     0.135 No        9984878 single        
##  4    0.865     0.135 No        9984878 single        
##  5    0.865     0.135 No        9984878 single        
##  6    0.865     0.135 No        9984878 single        
##  7    0.865     0.135 No        9984878 single        
##  8    0.865     0.135 No        9979065 single        
##  9    0.865     0.135 No        9979065 single        
## 10    0.865     0.135 No        9978110 single        
## # … with 2,791 more rows
…
